{
  "project_info": {
    "project_number": "586690511206",
    "firebase_url": "https://welearn-8a348.firebaseio.com",
    "project_id": "welearn-8a348",
    "storage_bucket": "welearn-8a348.appspot.com"
  },
  "client": [
    {
      "client_info": {
        "mobilesdk_app_id": "1:586690511206:android:dff4a02f2876b28c6748a7",
        "android_client_info": {
          "package_name": "com.welearn"
        }
      },
      "oauth_client": [
        {
          "client_id": "586690511206-a4qrn7h8rp6fq7sr2q8dnmtq1jmjv6vm.apps.googleusercontent.com",
          "client_type": 3
        }
      ],
      "api_key": [
        {
          "current_key": "AIzaSyAmAeI6KHK62VxMWlsY3WFige4uPyx7j_U"
        }
      ],
      "services": {
        "appinvite_service": {
          "other_platform_oauth_client": [
            {
              "client_id": "586690511206-a4qrn7h8rp6fq7sr2q8dnmtq1jmjv6vm.apps.googleusercontent.com",
              "client_type": 3
            }
          ]
        }
      }
    }
  ],
  "configuration_version": "1"
}